[
{
    "model": "base.satellite",
    "pk": 1,
    "fields": {
        "satellite_identifier": 1,
        "satellite_entry": 219,
        "associated_satellite": null,
        "last_modified": "2021-04-21T03:46:09.641Z"
    }
},
{
    "model": "base.satellite",
    "pk": 2,
    "fields": {
        "satellite_identifier": 2,
        "satellite_entry": 1,
        "associated_satellite": null,
        "last_modified": "2021-04-21T03:46:09.642Z"
    }
},
{
    "model": "base.satellite",
    "pk": 3,
    "fields": {
        "satellite_identifier": 3,
        "satellite_entry": 2,
        "associated_satellite": null,
        "last_modified": "2021-04-21T03:46:09.643Z"
    }
},
{
    "model": "base.satellite",
    "pk": 4,
    "fields": {
        "satellite_identifier": 4,
        "satellite_entry": 244,
        "associated_satellite": null,
        "last_modified": "2021-04-21T03:46:09.644Z"
    }
},
{
    "model": "base.satellite",
    "pk": 5,
    "fields": {
        "satellite_identifier": 5,
        "satellite_entry": 3,
        "associated_satellite": null,
        "last_modified": "2021-04-21T03:46:09.646Z"
    }
},
{
    "model": "base.satellite",
    "pk": 6,
    "fields": {
        "satellite_identifier": 6,
        "satellite_entry": 4,
        "associated_satellite": null,
        "last_modified": "2021-04-21T03:46:09.647Z"
    }
},
{
    "model": "base.satellite",
    "pk": 7,
    "fields": {
        "satellite_identifier": 7,
        "satellite_entry": 5,
        "associated_satellite": null,
        "last_modified": "2021-04-21T03:46:09.648Z"
    }
},
{
    "model": "base.satellite",
    "pk": 8,
    "fields": {
        "satellite_identifier": 8,
        "satellite_entry": 6,
        "associated_satellite": null,
        "last_modified": "2021-04-21T03:46:09.649Z"
    }
},
{
    "model": "base.satellite",
    "pk": 9,
    "fields": {
        "satellite_identifier": 9,
        "satellite_entry": 90,
        "associated_satellite": null,
        "last_modified": "2021-04-21T03:46:09.650Z"
    }
},
{
    "model": "base.satellite",
    "pk": 10,
    "fields": {
        "satellite_identifier": 10,
        "satellite_entry": 7,
        "associated_satellite": null,
        "last_modified": "2021-04-21T03:46:09.651Z"
    }
},
{
    "model": "base.satellite",
    "pk": 11,
    "fields": {
        "satellite_identifier": 11,
        "satellite_entry": 8,
        "associated_satellite": null,
        "last_modified": "2021-04-21T03:46:09.653Z"
    }
},
{
    "model": "base.satellite",
    "pk": 12,
    "fields": {
        "satellite_identifier": 12,
        "satellite_entry": 121,
        "associated_satellite": null,
        "last_modified": "2021-04-21T03:46:09.654Z"
    }
},
{
    "model": "base.satellite",
    "pk": 13,
    "fields": {
        "satellite_identifier": 13,
        "satellite_entry": 9,
        "associated_satellite": null,
        "last_modified": "2021-04-21T03:46:09.655Z"
    }
},
{
    "model": "base.satellite",
    "pk": 14,
    "fields": {
        "satellite_identifier": 14,
        "satellite_entry": 10,
        "associated_satellite": null,
        "last_modified": "2021-04-21T03:46:09.656Z"
    }
},
{
    "model": "base.satellite",
    "pk": 15,
    "fields": {
        "satellite_identifier": 15,
        "satellite_entry": 11,
        "associated_satellite": null,
        "last_modified": "2021-04-21T03:46:09.657Z"
    }
},
{
    "model": "base.satellite",
    "pk": 16,
    "fields": {
        "satellite_identifier": 16,
        "satellite_entry": 12,
        "associated_satellite": null,
        "last_modified": "2021-04-21T03:46:09.658Z"
    }
},
{
    "model": "base.satellite",
    "pk": 17,
    "fields": {
        "satellite_identifier": 17,
        "satellite_entry": 13,
        "associated_satellite": null,
        "last_modified": "2021-04-21T03:46:09.660Z"
    }
},
{
    "model": "base.satellite",
    "pk": 18,
    "fields": {
        "satellite_identifier": 18,
        "satellite_entry": 123,
        "associated_satellite": null,
        "last_modified": "2021-04-21T03:46:09.661Z"
    }
},
{
    "model": "base.satellite",
    "pk": 19,
    "fields": {
        "satellite_identifier": 19,
        "satellite_entry": 14,
        "associated_satellite": null,
        "last_modified": "2021-04-21T03:46:09.662Z"
    }
},
{
    "model": "base.satellite",
    "pk": 20,
    "fields": {
        "satellite_identifier": 20,
        "satellite_entry": 91,
        "associated_satellite": null,
        "last_modified": "2021-04-21T03:46:09.663Z"
    }
},
{
    "model": "base.satellite",
    "pk": 21,
    "fields": {
        "satellite_identifier": 21,
        "satellite_entry": 15,
        "associated_satellite": null,
        "last_modified": "2021-04-21T03:46:09.664Z"
    }
},
{
    "model": "base.satellite",
    "pk": 22,
    "fields": {
        "satellite_identifier": 22,
        "satellite_entry": 96,
        "associated_satellite": null,
        "last_modified": "2021-04-21T03:46:09.665Z"
    }
},
{
    "model": "base.satellite",
    "pk": 23,
    "fields": {
        "satellite_identifier": 23,
        "satellite_entry": 249,
        "associated_satellite": null,
        "last_modified": "2021-04-21T03:46:09.666Z"
    }
},
{
    "model": "base.satellite",
    "pk": 24,
    "fields": {
        "satellite_identifier": 24,
        "satellite_entry": 221,
        "associated_satellite": null,
        "last_modified": "2021-04-21T03:46:09.668Z"
    }
},
{
    "model": "base.satellite",
    "pk": 25,
    "fields": {
        "satellite_identifier": 25,
        "satellite_entry": 152,
        "associated_satellite": null,
        "last_modified": "2021-04-21T03:46:09.669Z"
    }
},
{
    "model": "base.satellite",
    "pk": 26,
    "fields": {
        "satellite_identifier": 26,
        "satellite_entry": 250,
        "associated_satellite": null,
        "last_modified": "2021-04-21T03:46:09.670Z"
    }
},
{
    "model": "base.satellite",
    "pk": 27,
    "fields": {
        "satellite_identifier": 27,
        "satellite_entry": 16,
        "associated_satellite": null,
        "last_modified": "2021-04-21T03:46:09.671Z"
    }
},
{
    "model": "base.satellite",
    "pk": 28,
    "fields": {
        "satellite_identifier": 28,
        "satellite_entry": 148,
        "associated_satellite": null,
        "last_modified": "2021-04-21T03:46:09.672Z"
    }
},
{
    "model": "base.satellite",
    "pk": 29,
    "fields": {
        "satellite_identifier": 29,
        "satellite_entry": 85,
        "associated_satellite": null,
        "last_modified": "2021-04-21T03:46:09.674Z"
    }
},
{
    "model": "base.satellite",
    "pk": 30,
    "fields": {
        "satellite_identifier": 30,
        "satellite_entry": 17,
        "associated_satellite": null,
        "last_modified": "2021-04-21T03:46:09.675Z"
    }
},
{
    "model": "base.satellite",
    "pk": 31,
    "fields": {
        "satellite_identifier": 31,
        "satellite_entry": 18,
        "associated_satellite": null,
        "last_modified": "2021-04-21T03:46:09.676Z"
    }
},
{
    "model": "base.satellite",
    "pk": 32,
    "fields": {
        "satellite_identifier": 32,
        "satellite_entry": 19,
        "associated_satellite": null,
        "last_modified": "2021-04-21T03:46:09.677Z"
    }
},
{
    "model": "base.satellite",
    "pk": 33,
    "fields": {
        "satellite_identifier": 33,
        "satellite_entry": 93,
        "associated_satellite": null,
        "last_modified": "2021-04-21T03:46:09.678Z"
    }
},
{
    "model": "base.satellite",
    "pk": 34,
    "fields": {
        "satellite_identifier": 34,
        "satellite_entry": 20,
        "associated_satellite": null,
        "last_modified": "2021-04-21T03:46:09.679Z"
    }
},
{
    "model": "base.satellite",
    "pk": 35,
    "fields": {
        "satellite_identifier": 35,
        "satellite_entry": 132,
        "associated_satellite": null,
        "last_modified": "2021-04-21T03:46:09.680Z"
    }
},
{
    "model": "base.satellite",
    "pk": 36,
    "fields": {
        "satellite_identifier": 36,
        "satellite_entry": 21,
        "associated_satellite": null,
        "last_modified": "2021-04-21T03:46:09.681Z"
    }
},
{
    "model": "base.satellite",
    "pk": 37,
    "fields": {
        "satellite_identifier": 37,
        "satellite_entry": 92,
        "associated_satellite": null,
        "last_modified": "2021-04-21T03:46:09.683Z"
    }
},
{
    "model": "base.satellite",
    "pk": 38,
    "fields": {
        "satellite_identifier": 38,
        "satellite_entry": 22,
        "associated_satellite": null,
        "last_modified": "2021-04-21T03:46:09.684Z"
    }
},
{
    "model": "base.satellite",
    "pk": 39,
    "fields": {
        "satellite_identifier": 39,
        "satellite_entry": 23,
        "associated_satellite": null,
        "last_modified": "2021-04-21T03:46:09.685Z"
    }
},
{
    "model": "base.satellite",
    "pk": 40,
    "fields": {
        "satellite_identifier": 40,
        "satellite_entry": 24,
        "associated_satellite": null,
        "last_modified": "2021-04-21T03:46:09.688Z"
    }
},
{
    "model": "base.satellite",
    "pk": 41,
    "fields": {
        "satellite_identifier": 41,
        "satellite_entry": 25,
        "associated_satellite": null,
        "last_modified": "2021-04-21T03:46:09.689Z"
    }
},
{
    "model": "base.satellite",
    "pk": 42,
    "fields": {
        "satellite_identifier": 42,
        "satellite_entry": 251,
        "associated_satellite": null,
        "last_modified": "2021-04-21T03:46:09.690Z"
    }
},
{
    "model": "base.satellite",
    "pk": 43,
    "fields": {
        "satellite_identifier": 43,
        "satellite_entry": 26,
        "associated_satellite": null,
        "last_modified": "2021-04-21T03:46:09.692Z"
    }
},
{
    "model": "base.satellite",
    "pk": 44,
    "fields": {
        "satellite_identifier": 44,
        "satellite_entry": 94,
        "associated_satellite": null,
        "last_modified": "2021-04-21T03:46:09.693Z"
    }
},
{
    "model": "base.satellite",
    "pk": 45,
    "fields": {
        "satellite_identifier": 45,
        "satellite_entry": 222,
        "associated_satellite": null,
        "last_modified": "2021-04-21T03:46:09.694Z"
    }
},
{
    "model": "base.satellite",
    "pk": 46,
    "fields": {
        "satellite_identifier": 46,
        "satellite_entry": 27,
        "associated_satellite": null,
        "last_modified": "2021-04-21T03:46:09.695Z"
    }
},
{
    "model": "base.satellite",
    "pk": 47,
    "fields": {
        "satellite_identifier": 47,
        "satellite_entry": 28,
        "associated_satellite": null,
        "last_modified": "2021-04-21T03:46:09.696Z"
    }
},
{
    "model": "base.satellite",
    "pk": 48,
    "fields": {
        "satellite_identifier": 48,
        "satellite_entry": 29,
        "associated_satellite": null,
        "last_modified": "2021-04-21T03:46:09.697Z"
    }
},
{
    "model": "base.satellite",
    "pk": 49,
    "fields": {
        "satellite_identifier": 49,
        "satellite_entry": 133,
        "associated_satellite": null,
        "last_modified": "2021-04-21T03:46:09.699Z"
    }
},
{
    "model": "base.satellite",
    "pk": 50,
    "fields": {
        "satellite_identifier": 50,
        "satellite_entry": 68,
        "associated_satellite": null,
        "last_modified": "2021-04-21T03:46:09.700Z"
    }
},
{
    "model": "base.satellite",
    "pk": 51,
    "fields": {
        "satellite_identifier": 51,
        "satellite_entry": 129,
        "associated_satellite": null,
        "last_modified": "2021-04-21T03:46:09.701Z"
    }
},
{
    "model": "base.satellite",
    "pk": 52,
    "fields": {
        "satellite_identifier": 52,
        "satellite_entry": 97,
        "associated_satellite": null,
        "last_modified": "2021-04-21T03:46:09.703Z"
    }
},
{
    "model": "base.satellite",
    "pk": 53,
    "fields": {
        "satellite_identifier": 53,
        "satellite_entry": 271,
        "associated_satellite": null,
        "last_modified": "2021-04-21T03:46:09.704Z"
    }
},
{
    "model": "base.satellite",
    "pk": 54,
    "fields": {
        "satellite_identifier": 54,
        "satellite_entry": 31,
        "associated_satellite": null,
        "last_modified": "2021-04-21T03:46:09.705Z"
    }
},
{
    "model": "base.satellite",
    "pk": 55,
    "fields": {
        "satellite_identifier": 55,
        "satellite_entry": 32,
        "associated_satellite": null,
        "last_modified": "2021-04-21T03:46:09.706Z"
    }
},
{
    "model": "base.satellite",
    "pk": 56,
    "fields": {
        "satellite_identifier": 56,
        "satellite_entry": 146,
        "associated_satellite": null,
        "last_modified": "2021-04-21T03:46:09.707Z"
    }
},
{
    "model": "base.satellite",
    "pk": 57,
    "fields": {
        "satellite_identifier": 57,
        "satellite_entry": 145,
        "associated_satellite": null,
        "last_modified": "2021-04-21T03:46:09.709Z"
    }
},
{
    "model": "base.satellite",
    "pk": 58,
    "fields": {
        "satellite_identifier": 58,
        "satellite_entry": 33,
        "associated_satellite": null,
        "last_modified": "2021-04-21T03:46:09.710Z"
    }
},
{
    "model": "base.satellite",
    "pk": 59,
    "fields": {
        "satellite_identifier": 59,
        "satellite_entry": 237,
        "associated_satellite": null,
        "last_modified": "2021-04-21T03:46:09.711Z"
    }
},
{
    "model": "base.satellite",
    "pk": 60,
    "fields": {
        "satellite_identifier": 60,
        "satellite_entry": 34,
        "associated_satellite": null,
        "last_modified": "2021-04-21T03:46:09.712Z"
    }
},
{
    "model": "base.satellite",
    "pk": 61,
    "fields": {
        "satellite_identifier": 61,
        "satellite_entry": 139,
        "associated_satellite": null,
        "last_modified": "2021-04-21T03:46:09.713Z"
    }
},
{
    "model": "base.satellite",
    "pk": 62,
    "fields": {
        "satellite_identifier": 62,
        "satellite_entry": 35,
        "associated_satellite": null,
        "last_modified": "2021-04-21T03:46:09.715Z"
    }
},
{
    "model": "base.satellite",
    "pk": 63,
    "fields": {
        "satellite_identifier": 63,
        "satellite_entry": 130,
        "associated_satellite": null,
        "last_modified": "2021-04-21T03:46:09.716Z"
    }
},
{
    "model": "base.satellite",
    "pk": 64,
    "fields": {
        "satellite_identifier": 64,
        "satellite_entry": 95,
        "associated_satellite": null,
        "last_modified": "2021-04-21T03:46:09.717Z"
    }
},
{
    "model": "base.satellite",
    "pk": 65,
    "fields": {
        "satellite_identifier": 65,
        "satellite_entry": 227,
        "associated_satellite": null,
        "last_modified": "2021-04-21T03:46:09.718Z"
    }
},
{
    "model": "base.satellite",
    "pk": 66,
    "fields": {
        "satellite_identifier": 66,
        "satellite_entry": 88,
        "associated_satellite": null,
        "last_modified": "2021-04-21T03:46:09.719Z"
    }
},
{
    "model": "base.satellite",
    "pk": 67,
    "fields": {
        "satellite_identifier": 67,
        "satellite_entry": 153,
        "associated_satellite": null,
        "last_modified": "2021-04-21T03:46:09.721Z"
    }
},
{
    "model": "base.satellite",
    "pk": 68,
    "fields": {
        "satellite_identifier": 68,
        "satellite_entry": 149,
        "associated_satellite": null,
        "last_modified": "2021-04-21T03:46:09.722Z"
    }
},
{
    "model": "base.satellite",
    "pk": 69,
    "fields": {
        "satellite_identifier": 69,
        "satellite_entry": 155,
        "associated_satellite": null,
        "last_modified": "2021-04-21T03:46:09.723Z"
    }
},
{
    "model": "base.satellite",
    "pk": 70,
    "fields": {
        "satellite_identifier": 70,
        "satellite_entry": 157,
        "associated_satellite": null,
        "last_modified": "2021-04-21T03:46:09.724Z"
    }
},
{
    "model": "base.satellite",
    "pk": 71,
    "fields": {
        "satellite_identifier": 71,
        "satellite_entry": 150,
        "associated_satellite": null,
        "last_modified": "2021-04-21T03:46:09.725Z"
    }
},
{
    "model": "base.satellite",
    "pk": 72,
    "fields": {
        "satellite_identifier": 72,
        "satellite_entry": 154,
        "associated_satellite": null,
        "last_modified": "2021-04-21T03:46:09.726Z"
    }
},
{
    "model": "base.satellite",
    "pk": 73,
    "fields": {
        "satellite_identifier": 73,
        "satellite_entry": 156,
        "associated_satellite": null,
        "last_modified": "2021-04-21T03:46:09.728Z"
    }
},
{
    "model": "base.satellite",
    "pk": 74,
    "fields": {
        "satellite_identifier": 74,
        "satellite_entry": 158,
        "associated_satellite": null,
        "last_modified": "2021-04-21T03:46:09.729Z"
    }
},
{
    "model": "base.satellite",
    "pk": 75,
    "fields": {
        "satellite_identifier": 75,
        "satellite_entry": 151,
        "associated_satellite": null,
        "last_modified": "2021-04-21T03:46:09.730Z"
    }
},
{
    "model": "base.satellite",
    "pk": 76,
    "fields": {
        "satellite_identifier": 76,
        "satellite_entry": 87,
        "associated_satellite": null,
        "last_modified": "2021-04-21T03:46:09.731Z"
    }
},
{
    "model": "base.satellite",
    "pk": 77,
    "fields": {
        "satellite_identifier": 77,
        "satellite_entry": 36,
        "associated_satellite": null,
        "last_modified": "2021-04-21T03:46:09.732Z"
    }
},
{
    "model": "base.satellite",
    "pk": 78,
    "fields": {
        "satellite_identifier": 78,
        "satellite_entry": 144,
        "associated_satellite": null,
        "last_modified": "2021-04-21T03:46:09.734Z"
    }
},
{
    "model": "base.satellite",
    "pk": 79,
    "fields": {
        "satellite_identifier": 79,
        "satellite_entry": 37,
        "associated_satellite": null,
        "last_modified": "2021-04-21T03:46:09.735Z"
    }
},
{
    "model": "base.satellite",
    "pk": 80,
    "fields": {
        "satellite_identifier": 80,
        "satellite_entry": 143,
        "associated_satellite": null,
        "last_modified": "2021-04-21T03:46:09.736Z"
    }
},
{
    "model": "base.satellite",
    "pk": 81,
    "fields": {
        "satellite_identifier": 81,
        "satellite_entry": 38,
        "associated_satellite": null,
        "last_modified": "2021-04-21T03:46:09.737Z"
    }
},
{
    "model": "base.satellite",
    "pk": 82,
    "fields": {
        "satellite_identifier": 82,
        "satellite_entry": 147,
        "associated_satellite": null,
        "last_modified": "2021-04-21T03:46:09.738Z"
    }
},
{
    "model": "base.satellite",
    "pk": 83,
    "fields": {
        "satellite_identifier": 83,
        "satellite_entry": 141,
        "associated_satellite": null,
        "last_modified": "2021-04-21T03:46:09.739Z"
    }
},
{
    "model": "base.satellite",
    "pk": 84,
    "fields": {
        "satellite_identifier": 84,
        "satellite_entry": 39,
        "associated_satellite": null,
        "last_modified": "2021-04-21T03:46:09.741Z"
    }
},
{
    "model": "base.satellite",
    "pk": 85,
    "fields": {
        "satellite_identifier": 85,
        "satellite_entry": 67,
        "associated_satellite": null,
        "last_modified": "2021-04-21T03:46:09.742Z"
    }
},
{
    "model": "base.satellite",
    "pk": 86,
    "fields": {
        "satellite_identifier": 86,
        "satellite_entry": 41,
        "associated_satellite": null,
        "last_modified": "2021-04-21T03:46:09.743Z"
    }
},
{
    "model": "base.satellite",
    "pk": 87,
    "fields": {
        "satellite_identifier": 87,
        "satellite_entry": 86,
        "associated_satellite": null,
        "last_modified": "2021-04-21T03:46:09.744Z"
    }
},
{
    "model": "base.satellite",
    "pk": 88,
    "fields": {
        "satellite_identifier": 88,
        "satellite_entry": 42,
        "associated_satellite": null,
        "last_modified": "2021-04-21T03:46:09.745Z"
    }
},
{
    "model": "base.satellite",
    "pk": 89,
    "fields": {
        "satellite_identifier": 89,
        "satellite_entry": 140,
        "associated_satellite": null,
        "last_modified": "2021-04-21T03:46:09.746Z"
    }
},
{
    "model": "base.satellite",
    "pk": 90,
    "fields": {
        "satellite_identifier": 90,
        "satellite_entry": 43,
        "associated_satellite": null,
        "last_modified": "2021-04-21T03:46:09.747Z"
    }
},
{
    "model": "base.satellite",
    "pk": 91,
    "fields": {
        "satellite_identifier": 91,
        "satellite_entry": 142,
        "associated_satellite": null,
        "last_modified": "2021-04-21T03:46:09.748Z"
    }
},
{
    "model": "base.satellite",
    "pk": 92,
    "fields": {
        "satellite_identifier": 92,
        "satellite_entry": 44,
        "associated_satellite": null,
        "last_modified": "2021-04-21T03:46:09.750Z"
    }
},
{
    "model": "base.satellite",
    "pk": 93,
    "fields": {
        "satellite_identifier": 93,
        "satellite_entry": 134,
        "associated_satellite": null,
        "last_modified": "2021-04-21T03:46:09.751Z"
    }
},
{
    "model": "base.satellite",
    "pk": 94,
    "fields": {
        "satellite_identifier": 94,
        "satellite_entry": 45,
        "associated_satellite": null,
        "last_modified": "2021-04-21T03:46:09.752Z"
    }
},
{
    "model": "base.satellite",
    "pk": 95,
    "fields": {
        "satellite_identifier": 95,
        "satellite_entry": 65,
        "associated_satellite": null,
        "last_modified": "2021-04-21T03:46:09.753Z"
    }
},
{
    "model": "base.satellite",
    "pk": 96,
    "fields": {
        "satellite_identifier": 96,
        "satellite_entry": 61,
        "associated_satellite": null,
        "last_modified": "2021-04-21T03:46:09.754Z"
    }
},
{
    "model": "base.satellite",
    "pk": 97,
    "fields": {
        "satellite_identifier": 97,
        "satellite_entry": 46,
        "associated_satellite": null,
        "last_modified": "2021-04-21T03:46:09.755Z"
    }
},
{
    "model": "base.satellite",
    "pk": 98,
    "fields": {
        "satellite_identifier": 98,
        "satellite_entry": 62,
        "associated_satellite": null,
        "last_modified": "2021-04-21T03:46:09.757Z"
    }
},
{
    "model": "base.satellite",
    "pk": 99,
    "fields": {
        "satellite_identifier": 99,
        "satellite_entry": 47,
        "associated_satellite": null,
        "last_modified": "2021-04-21T03:46:09.758Z"
    }
},
{
    "model": "base.satellite",
    "pk": 100,
    "fields": {
        "satellite_identifier": 100,
        "satellite_entry": 135,
        "associated_satellite": null,
        "last_modified": "2021-04-21T03:46:09.759Z"
    }
},
{
    "model": "base.satellite",
    "pk": 101,
    "fields": {
        "satellite_identifier": 101,
        "satellite_entry": 64,
        "associated_satellite": null,
        "last_modified": "2021-04-21T03:46:09.760Z"
    }
},
{
    "model": "base.satellite",
    "pk": 102,
    "fields": {
        "satellite_identifier": 102,
        "satellite_entry": 63,
        "associated_satellite": null,
        "last_modified": "2021-04-21T03:46:09.761Z"
    }
},
{
    "model": "base.satellite",
    "pk": 103,
    "fields": {
        "satellite_identifier": 103,
        "satellite_entry": 66,
        "associated_satellite": null,
        "last_modified": "2021-04-21T03:46:09.762Z"
    }
},
{
    "model": "base.satellite",
    "pk": 104,
    "fields": {
        "satellite_identifier": 104,
        "satellite_entry": 59,
        "associated_satellite": null,
        "last_modified": "2021-04-21T03:46:09.764Z"
    }
},
{
    "model": "base.satellite",
    "pk": 105,
    "fields": {
        "satellite_identifier": 105,
        "satellite_entry": 127,
        "associated_satellite": null,
        "last_modified": "2021-04-21T03:46:09.765Z"
    }
},
{
    "model": "base.satellite",
    "pk": 106,
    "fields": {
        "satellite_identifier": 106,
        "satellite_entry": 128,
        "associated_satellite": null,
        "last_modified": "2021-04-21T03:46:09.766Z"
    }
},
{
    "model": "base.satellite",
    "pk": 107,
    "fields": {
        "satellite_identifier": 107,
        "satellite_entry": 60,
        "associated_satellite": null,
        "last_modified": "2021-04-21T03:46:09.767Z"
    }
},
{
    "model": "base.satellite",
    "pk": 108,
    "fields": {
        "satellite_identifier": 108,
        "satellite_entry": 160,
        "associated_satellite": null,
        "last_modified": "2021-04-21T03:46:09.768Z"
    }
},
{
    "model": "base.satellite",
    "pk": 109,
    "fields": {
        "satellite_identifier": 109,
        "satellite_entry": 58,
        "associated_satellite": null,
        "last_modified": "2021-04-21T03:46:09.769Z"
    }
},
{
    "model": "base.satellite",
    "pk": 110,
    "fields": {
        "satellite_identifier": 110,
        "satellite_entry": 57,
        "associated_satellite": null,
        "last_modified": "2021-04-21T03:46:09.770Z"
    }
},
{
    "model": "base.satellite",
    "pk": 111,
    "fields": {
        "satellite_identifier": 111,
        "satellite_entry": 54,
        "associated_satellite": null,
        "last_modified": "2021-04-21T03:46:09.772Z"
    }
},
{
    "model": "base.satellite",
    "pk": 112,
    "fields": {
        "satellite_identifier": 112,
        "satellite_entry": 55,
        "associated_satellite": null,
        "last_modified": "2021-04-21T03:46:09.773Z"
    }
},
{
    "model": "base.satellite",
    "pk": 113,
    "fields": {
        "satellite_identifier": 113,
        "satellite_entry": 51,
        "associated_satellite": null,
        "last_modified": "2021-04-21T03:46:09.774Z"
    }
},
{
    "model": "base.satellite",
    "pk": 114,
    "fields": {
        "satellite_identifier": 114,
        "satellite_entry": 56,
        "associated_satellite": null,
        "last_modified": "2021-04-21T03:46:09.775Z"
    }
},
{
    "model": "base.satellite",
    "pk": 115,
    "fields": {
        "satellite_identifier": 115,
        "satellite_entry": 52,
        "associated_satellite": null,
        "last_modified": "2021-04-21T03:46:09.777Z"
    }
},
{
    "model": "base.satellite",
    "pk": 116,
    "fields": {
        "satellite_identifier": 116,
        "satellite_entry": 53,
        "associated_satellite": null,
        "last_modified": "2021-04-21T03:46:09.778Z"
    }
},
{
    "model": "base.satellite",
    "pk": 117,
    "fields": {
        "satellite_identifier": 117,
        "satellite_entry": 49,
        "associated_satellite": null,
        "last_modified": "2021-04-21T03:46:09.779Z"
    }
},
{
    "model": "base.satellite",
    "pk": 118,
    "fields": {
        "satellite_identifier": 118,
        "satellite_entry": 50,
        "associated_satellite": null,
        "last_modified": "2021-04-21T03:46:09.780Z"
    }
},
{
    "model": "base.satellite",
    "pk": 119,
    "fields": {
        "satellite_identifier": 119,
        "satellite_entry": 83,
        "associated_satellite": null,
        "last_modified": "2021-04-21T03:46:09.781Z"
    }
},
{
    "model": "base.satellite",
    "pk": 120,
    "fields": {
        "satellite_identifier": 120,
        "satellite_entry": 82,
        "associated_satellite": null,
        "last_modified": "2021-04-21T03:46:09.782Z"
    }
},
{
    "model": "base.satellite",
    "pk": 121,
    "fields": {
        "satellite_identifier": 121,
        "satellite_entry": 74,
        "associated_satellite": null,
        "last_modified": "2021-04-21T03:46:09.783Z"
    }
},
{
    "model": "base.satellite",
    "pk": 122,
    "fields": {
        "satellite_identifier": 122,
        "satellite_entry": 76,
        "associated_satellite": null,
        "last_modified": "2021-04-21T03:46:09.785Z"
    }
},
{
    "model": "base.satellite",
    "pk": 123,
    "fields": {
        "satellite_identifier": 123,
        "satellite_entry": 77,
        "associated_satellite": null,
        "last_modified": "2021-04-21T03:46:09.786Z"
    }
},
{
    "model": "base.satellite",
    "pk": 124,
    "fields": {
        "satellite_identifier": 124,
        "satellite_entry": 81,
        "associated_satellite": null,
        "last_modified": "2021-04-21T03:46:09.787Z"
    }
},
{
    "model": "base.satellite",
    "pk": 125,
    "fields": {
        "satellite_identifier": 125,
        "satellite_entry": 78,
        "associated_satellite": null,
        "last_modified": "2021-04-21T03:46:09.788Z"
    }
},
{
    "model": "base.satellite",
    "pk": 126,
    "fields": {
        "satellite_identifier": 126,
        "satellite_entry": 79,
        "associated_satellite": null,
        "last_modified": "2021-04-21T03:46:09.789Z"
    }
},
{
    "model": "base.satellite",
    "pk": 127,
    "fields": {
        "satellite_identifier": 127,
        "satellite_entry": 75,
        "associated_satellite": null,
        "last_modified": "2021-04-21T03:46:09.791Z"
    }
},
{
    "model": "base.satellite",
    "pk": 128,
    "fields": {
        "satellite_identifier": 128,
        "satellite_entry": 80,
        "associated_satellite": null,
        "last_modified": "2021-04-21T03:46:09.792Z"
    }
},
{
    "model": "base.satellite",
    "pk": 129,
    "fields": {
        "satellite_identifier": 129,
        "satellite_entry": 73,
        "associated_satellite": null,
        "last_modified": "2021-04-21T03:46:09.793Z"
    }
},
{
    "model": "base.satellite",
    "pk": 130,
    "fields": {
        "satellite_identifier": 130,
        "satellite_entry": 72,
        "associated_satellite": null,
        "last_modified": "2021-04-21T03:46:09.794Z"
    }
},
{
    "model": "base.satellite",
    "pk": 131,
    "fields": {
        "satellite_identifier": 131,
        "satellite_entry": 71,
        "associated_satellite": null,
        "last_modified": "2021-04-21T03:46:09.795Z"
    }
},
{
    "model": "base.satellite",
    "pk": 132,
    "fields": {
        "satellite_identifier": 132,
        "satellite_entry": 106,
        "associated_satellite": null,
        "last_modified": "2021-04-21T03:46:09.796Z"
    }
},
{
    "model": "base.satellite",
    "pk": 133,
    "fields": {
        "satellite_identifier": 133,
        "satellite_entry": 69,
        "associated_satellite": null,
        "last_modified": "2021-04-21T03:46:09.797Z"
    }
},
{
    "model": "base.satellite",
    "pk": 134,
    "fields": {
        "satellite_identifier": 134,
        "satellite_entry": 70,
        "associated_satellite": null,
        "last_modified": "2021-04-21T03:46:09.799Z"
    }
},
{
    "model": "base.satellite",
    "pk": 135,
    "fields": {
        "satellite_identifier": 135,
        "satellite_entry": 105,
        "associated_satellite": null,
        "last_modified": "2021-04-21T03:46:09.800Z"
    }
},
{
    "model": "base.satellite",
    "pk": 136,
    "fields": {
        "satellite_identifier": 136,
        "satellite_entry": 89,
        "associated_satellite": null,
        "last_modified": "2021-04-21T03:46:09.801Z"
    }
},
{
    "model": "base.satellite",
    "pk": 137,
    "fields": {
        "satellite_identifier": 137,
        "satellite_entry": 104,
        "associated_satellite": null,
        "last_modified": "2021-04-21T03:46:09.803Z"
    }
},
{
    "model": "base.satellite",
    "pk": 138,
    "fields": {
        "satellite_identifier": 138,
        "satellite_entry": 98,
        "associated_satellite": null,
        "last_modified": "2021-04-21T03:46:09.804Z"
    }
},
{
    "model": "base.satellite",
    "pk": 139,
    "fields": {
        "satellite_identifier": 139,
        "satellite_entry": 169,
        "associated_satellite": null,
        "last_modified": "2021-04-21T03:46:09.805Z"
    }
},
{
    "model": "base.satellite",
    "pk": 140,
    "fields": {
        "satellite_identifier": 140,
        "satellite_entry": 99,
        "associated_satellite": null,
        "last_modified": "2021-04-21T03:46:09.807Z"
    }
},
{
    "model": "base.satellite",
    "pk": 141,
    "fields": {
        "satellite_identifier": 141,
        "satellite_entry": 100,
        "associated_satellite": null,
        "last_modified": "2021-04-21T03:46:09.808Z"
    }
},
{
    "model": "base.satellite",
    "pk": 142,
    "fields": {
        "satellite_identifier": 142,
        "satellite_entry": 101,
        "associated_satellite": null,
        "last_modified": "2021-04-21T03:46:09.810Z"
    }
},
{
    "model": "base.satellite",
    "pk": 143,
    "fields": {
        "satellite_identifier": 143,
        "satellite_entry": 102,
        "associated_satellite": null,
        "last_modified": "2021-04-21T03:46:09.811Z"
    }
},
{
    "model": "base.satellite",
    "pk": 144,
    "fields": {
        "satellite_identifier": 144,
        "satellite_entry": 103,
        "associated_satellite": null,
        "last_modified": "2021-04-21T03:46:09.813Z"
    }
},
{
    "model": "base.satellite",
    "pk": 145,
    "fields": {
        "satellite_identifier": 145,
        "satellite_entry": 120,
        "associated_satellite": null,
        "last_modified": "2021-04-21T03:46:09.814Z"
    }
},
{
    "model": "base.satellite",
    "pk": 146,
    "fields": {
        "satellite_identifier": 146,
        "satellite_entry": 119,
        "associated_satellite": null,
        "last_modified": "2021-04-21T03:46:09.815Z"
    }
},
{
    "model": "base.satellite",
    "pk": 147,
    "fields": {
        "satellite_identifier": 147,
        "satellite_entry": 118,
        "associated_satellite": null,
        "last_modified": "2021-04-21T03:46:09.816Z"
    }
},
{
    "model": "base.satellite",
    "pk": 148,
    "fields": {
        "satellite_identifier": 148,
        "satellite_entry": 136,
        "associated_satellite": null,
        "last_modified": "2021-04-21T03:46:09.817Z"
    }
},
{
    "model": "base.satellite",
    "pk": 149,
    "fields": {
        "satellite_identifier": 149,
        "satellite_entry": 107,
        "associated_satellite": null,
        "last_modified": "2021-04-21T03:46:09.818Z"
    }
},
{
    "model": "base.satellite",
    "pk": 150,
    "fields": {
        "satellite_identifier": 150,
        "satellite_entry": 117,
        "associated_satellite": null,
        "last_modified": "2021-04-21T03:46:09.820Z"
    }
},
{
    "model": "base.satellite",
    "pk": 151,
    "fields": {
        "satellite_identifier": 151,
        "satellite_entry": 116,
        "associated_satellite": null,
        "last_modified": "2021-04-21T03:46:09.821Z"
    }
},
{
    "model": "base.satellite",
    "pk": 152,
    "fields": {
        "satellite_identifier": 152,
        "satellite_entry": 115,
        "associated_satellite": null,
        "last_modified": "2021-04-21T03:46:09.822Z"
    }
},
{
    "model": "base.satellite",
    "pk": 153,
    "fields": {
        "satellite_identifier": 153,
        "satellite_entry": 114,
        "associated_satellite": null,
        "last_modified": "2021-04-21T03:46:09.823Z"
    }
},
{
    "model": "base.satellite",
    "pk": 154,
    "fields": {
        "satellite_identifier": 154,
        "satellite_entry": 113,
        "associated_satellite": null,
        "last_modified": "2021-04-21T03:46:09.825Z"
    }
},
{
    "model": "base.satellite",
    "pk": 155,
    "fields": {
        "satellite_identifier": 155,
        "satellite_entry": 112,
        "associated_satellite": null,
        "last_modified": "2021-04-21T03:46:09.826Z"
    }
},
{
    "model": "base.satellite",
    "pk": 156,
    "fields": {
        "satellite_identifier": 156,
        "satellite_entry": 111,
        "associated_satellite": null,
        "last_modified": "2021-04-21T03:46:09.827Z"
    }
},
{
    "model": "base.satellite",
    "pk": 157,
    "fields": {
        "satellite_identifier": 157,
        "satellite_entry": 252,
        "associated_satellite": null,
        "last_modified": "2021-04-21T03:46:09.828Z"
    }
},
{
    "model": "base.satellite",
    "pk": 158,
    "fields": {
        "satellite_identifier": 158,
        "satellite_entry": 110,
        "associated_satellite": null,
        "last_modified": "2021-04-21T03:46:09.829Z"
    }
},
{
    "model": "base.satellite",
    "pk": 159,
    "fields": {
        "satellite_identifier": 159,
        "satellite_entry": 122,
        "associated_satellite": null,
        "last_modified": "2021-04-21T03:46:09.830Z"
    }
},
{
    "model": "base.satellite",
    "pk": 160,
    "fields": {
        "satellite_identifier": 160,
        "satellite_entry": 109,
        "associated_satellite": null,
        "last_modified": "2021-04-21T03:46:09.832Z"
    }
},
{
    "model": "base.satellite",
    "pk": 161,
    "fields": {
        "satellite_identifier": 161,
        "satellite_entry": 108,
        "associated_satellite": null,
        "last_modified": "2021-04-21T03:46:09.833Z"
    }
},
{
    "model": "base.satellite",
    "pk": 162,
    "fields": {
        "satellite_identifier": 162,
        "satellite_entry": 137,
        "associated_satellite": null,
        "last_modified": "2021-04-21T03:46:09.834Z"
    }
},
{
    "model": "base.satellite",
    "pk": 163,
    "fields": {
        "satellite_identifier": 163,
        "satellite_entry": 125,
        "associated_satellite": null,
        "last_modified": "2021-04-21T03:46:09.835Z"
    }
},
{
    "model": "base.satellite",
    "pk": 164,
    "fields": {
        "satellite_identifier": 164,
        "satellite_entry": 138,
        "associated_satellite": null,
        "last_modified": "2021-04-21T03:46:09.836Z"
    }
},
{
    "model": "base.satellite",
    "pk": 165,
    "fields": {
        "satellite_identifier": 165,
        "satellite_entry": 124,
        "associated_satellite": null,
        "last_modified": "2021-04-21T03:46:09.837Z"
    }
},
{
    "model": "base.satellite",
    "pk": 166,
    "fields": {
        "satellite_identifier": 166,
        "satellite_entry": 168,
        "associated_satellite": null,
        "last_modified": "2021-04-21T03:46:09.839Z"
    }
},
{
    "model": "base.satellite",
    "pk": 167,
    "fields": {
        "satellite_identifier": 167,
        "satellite_entry": 159,
        "associated_satellite": null,
        "last_modified": "2021-04-21T03:46:09.840Z"
    }
},
{
    "model": "base.satellite",
    "pk": 168,
    "fields": {
        "satellite_identifier": 168,
        "satellite_entry": 167,
        "associated_satellite": null,
        "last_modified": "2021-04-21T03:46:09.841Z"
    }
},
{
    "model": "base.satellite",
    "pk": 169,
    "fields": {
        "satellite_identifier": 169,
        "satellite_entry": 161,
        "associated_satellite": null,
        "last_modified": "2021-04-21T03:46:09.842Z"
    }
},
{
    "model": "base.satellite",
    "pk": 170,
    "fields": {
        "satellite_identifier": 170,
        "satellite_entry": 162,
        "associated_satellite": null,
        "last_modified": "2021-04-21T03:46:09.843Z"
    }
},
{
    "model": "base.satellite",
    "pk": 171,
    "fields": {
        "satellite_identifier": 171,
        "satellite_entry": 165,
        "associated_satellite": null,
        "last_modified": "2021-04-21T03:46:09.844Z"
    }
},
{
    "model": "base.satellite",
    "pk": 172,
    "fields": {
        "satellite_identifier": 172,
        "satellite_entry": 166,
        "associated_satellite": null,
        "last_modified": "2021-04-21T03:46:09.845Z"
    }
},
{
    "model": "base.satellite",
    "pk": 173,
    "fields": {
        "satellite_identifier": 173,
        "satellite_entry": 163,
        "associated_satellite": null,
        "last_modified": "2021-04-21T03:46:09.847Z"
    }
},
{
    "model": "base.satellite",
    "pk": 174,
    "fields": {
        "satellite_identifier": 174,
        "satellite_entry": 164,
        "associated_satellite": null,
        "last_modified": "2021-04-21T03:46:09.848Z"
    }
},
{
    "model": "base.satellite",
    "pk": 175,
    "fields": {
        "satellite_identifier": 175,
        "satellite_entry": 253,
        "associated_satellite": null,
        "last_modified": "2021-04-21T03:46:09.849Z"
    }
},
{
    "model": "base.satellite",
    "pk": 176,
    "fields": {
        "satellite_identifier": 176,
        "satellite_entry": 170,
        "associated_satellite": null,
        "last_modified": "2021-04-21T03:46:09.850Z"
    }
},
{
    "model": "base.satellite",
    "pk": 177,
    "fields": {
        "satellite_identifier": 177,
        "satellite_entry": 175,
        "associated_satellite": null,
        "last_modified": "2021-04-21T03:46:09.851Z"
    }
},
{
    "model": "base.satellite",
    "pk": 178,
    "fields": {
        "satellite_identifier": 178,
        "satellite_entry": 173,
        "associated_satellite": null,
        "last_modified": "2021-04-21T03:46:09.853Z"
    }
},
{
    "model": "base.satellite",
    "pk": 179,
    "fields": {
        "satellite_identifier": 179,
        "satellite_entry": 176,
        "associated_satellite": null,
        "last_modified": "2021-04-21T03:46:09.854Z"
    }
},
{
    "model": "base.satellite",
    "pk": 180,
    "fields": {
        "satellite_identifier": 180,
        "satellite_entry": 177,
        "associated_satellite": null,
        "last_modified": "2021-04-21T03:46:09.858Z"
    }
},
{
    "model": "base.satellite",
    "pk": 181,
    "fields": {
        "satellite_identifier": 181,
        "satellite_entry": 178,
        "associated_satellite": null,
        "last_modified": "2021-04-21T03:46:09.863Z"
    }
},
{
    "model": "base.satellite",
    "pk": 182,
    "fields": {
        "satellite_identifier": 182,
        "satellite_entry": 172,
        "associated_satellite": null,
        "last_modified": "2021-04-21T03:46:09.867Z"
    }
},
{
    "model": "base.satellite",
    "pk": 183,
    "fields": {
        "satellite_identifier": 183,
        "satellite_entry": 179,
        "associated_satellite": null,
        "last_modified": "2021-04-21T03:46:09.870Z"
    }
},
{
    "model": "base.satellite",
    "pk": 184,
    "fields": {
        "satellite_identifier": 184,
        "satellite_entry": 180,
        "associated_satellite": null,
        "last_modified": "2021-04-21T03:46:09.873Z"
    }
},
{
    "model": "base.satellite",
    "pk": 185,
    "fields": {
        "satellite_identifier": 185,
        "satellite_entry": 171,
        "associated_satellite": null,
        "last_modified": "2021-04-21T03:46:09.875Z"
    }
},
{
    "model": "base.satellite",
    "pk": 186,
    "fields": {
        "satellite_identifier": 186,
        "satellite_entry": 181,
        "associated_satellite": null,
        "last_modified": "2021-04-21T03:46:09.878Z"
    }
},
{
    "model": "base.satellite",
    "pk": 187,
    "fields": {
        "satellite_identifier": 187,
        "satellite_entry": 182,
        "associated_satellite": null,
        "last_modified": "2021-04-21T03:46:09.880Z"
    }
},
{
    "model": "base.satellite",
    "pk": 188,
    "fields": {
        "satellite_identifier": 188,
        "satellite_entry": 183,
        "associated_satellite": null,
        "last_modified": "2021-04-21T03:46:09.882Z"
    }
},
{
    "model": "base.satellite",
    "pk": 189,
    "fields": {
        "satellite_identifier": 189,
        "satellite_entry": 184,
        "associated_satellite": null,
        "last_modified": "2021-04-21T03:46:09.884Z"
    }
},
{
    "model": "base.satellite",
    "pk": 190,
    "fields": {
        "satellite_identifier": 190,
        "satellite_entry": 185,
        "associated_satellite": null,
        "last_modified": "2021-04-21T03:46:09.886Z"
    }
},
{
    "model": "base.satellite",
    "pk": 191,
    "fields": {
        "satellite_identifier": 191,
        "satellite_entry": 174,
        "associated_satellite": null,
        "last_modified": "2021-04-21T03:46:09.888Z"
    }
},
{
    "model": "base.satellite",
    "pk": 192,
    "fields": {
        "satellite_identifier": 192,
        "satellite_entry": 186,
        "associated_satellite": null,
        "last_modified": "2021-04-21T03:46:09.891Z"
    }
},
{
    "model": "base.satellite",
    "pk": 193,
    "fields": {
        "satellite_identifier": 193,
        "satellite_entry": 187,
        "associated_satellite": null,
        "last_modified": "2021-04-21T03:46:09.895Z"
    }
},
{
    "model": "base.satellite",
    "pk": 194,
    "fields": {
        "satellite_identifier": 194,
        "satellite_entry": 255,
        "associated_satellite": null,
        "last_modified": "2021-04-21T03:46:09.897Z"
    }
},
{
    "model": "base.satellite",
    "pk": 195,
    "fields": {
        "satellite_identifier": 195,
        "satellite_entry": 188,
        "associated_satellite": null,
        "last_modified": "2021-04-21T03:46:09.900Z"
    }
},
{
    "model": "base.satellite",
    "pk": 196,
    "fields": {
        "satellite_identifier": 196,
        "satellite_entry": 189,
        "associated_satellite": null,
        "last_modified": "2021-04-21T03:46:09.902Z"
    }
},
{
    "model": "base.satellite",
    "pk": 197,
    "fields": {
        "satellite_identifier": 197,
        "satellite_entry": 190,
        "associated_satellite": null,
        "last_modified": "2021-04-21T03:46:09.905Z"
    }
},
{
    "model": "base.satellite",
    "pk": 198,
    "fields": {
        "satellite_identifier": 198,
        "satellite_entry": 192,
        "associated_satellite": null,
        "last_modified": "2021-04-21T03:46:09.907Z"
    }
},
{
    "model": "base.satellite",
    "pk": 199,
    "fields": {
        "satellite_identifier": 199,
        "satellite_entry": 238,
        "associated_satellite": null,
        "last_modified": "2021-04-21T03:46:09.909Z"
    }
},
{
    "model": "base.satellite",
    "pk": 200,
    "fields": {
        "satellite_identifier": 200,
        "satellite_entry": 191,
        "associated_satellite": null,
        "last_modified": "2021-04-21T03:46:09.912Z"
    }
},
{
    "model": "base.satellite",
    "pk": 201,
    "fields": {
        "satellite_identifier": 201,
        "satellite_entry": 193,
        "associated_satellite": null,
        "last_modified": "2021-04-21T03:46:09.914Z"
    }
},
{
    "model": "base.satellite",
    "pk": 202,
    "fields": {
        "satellite_identifier": 202,
        "satellite_entry": 194,
        "associated_satellite": null,
        "last_modified": "2021-04-21T03:46:09.916Z"
    }
},
{
    "model": "base.satellite",
    "pk": 203,
    "fields": {
        "satellite_identifier": 203,
        "satellite_entry": 195,
        "associated_satellite": null,
        "last_modified": "2021-04-21T03:46:09.919Z"
    }
},
{
    "model": "base.satellite",
    "pk": 204,
    "fields": {
        "satellite_identifier": 204,
        "satellite_entry": 196,
        "associated_satellite": null,
        "last_modified": "2021-04-21T03:46:09.921Z"
    }
},
{
    "model": "base.satellite",
    "pk": 205,
    "fields": {
        "satellite_identifier": 205,
        "satellite_entry": 197,
        "associated_satellite": null,
        "last_modified": "2021-04-21T03:46:09.923Z"
    }
},
{
    "model": "base.satellite",
    "pk": 206,
    "fields": {
        "satellite_identifier": 206,
        "satellite_entry": 198,
        "associated_satellite": null,
        "last_modified": "2021-04-21T03:46:09.925Z"
    }
},
{
    "model": "base.satellite",
    "pk": 207,
    "fields": {
        "satellite_identifier": 207,
        "satellite_entry": 200,
        "associated_satellite": null,
        "last_modified": "2021-04-21T03:46:09.928Z"
    }
},
{
    "model": "base.satellite",
    "pk": 208,
    "fields": {
        "satellite_identifier": 208,
        "satellite_entry": 201,
        "associated_satellite": null,
        "last_modified": "2021-04-21T03:46:09.930Z"
    }
},
{
    "model": "base.satellite",
    "pk": 209,
    "fields": {
        "satellite_identifier": 209,
        "satellite_entry": 254,
        "associated_satellite": null,
        "last_modified": "2021-04-21T03:46:09.933Z"
    }
},
{
    "model": "base.satellite",
    "pk": 210,
    "fields": {
        "satellite_identifier": 210,
        "satellite_entry": 199,
        "associated_satellite": null,
        "last_modified": "2021-04-21T03:46:09.935Z"
    }
},
{
    "model": "base.satellite",
    "pk": 211,
    "fields": {
        "satellite_identifier": 211,
        "satellite_entry": 202,
        "associated_satellite": null,
        "last_modified": "2021-04-21T03:46:09.936Z"
    }
},
{
    "model": "base.satellite",
    "pk": 212,
    "fields": {
        "satellite_identifier": 212,
        "satellite_entry": 204,
        "associated_satellite": null,
        "last_modified": "2021-04-21T03:46:09.938Z"
    }
},
{
    "model": "base.satellite",
    "pk": 213,
    "fields": {
        "satellite_identifier": 213,
        "satellite_entry": 205,
        "associated_satellite": null,
        "last_modified": "2021-04-21T03:46:09.939Z"
    }
},
{
    "model": "base.satellite",
    "pk": 214,
    "fields": {
        "satellite_identifier": 214,
        "satellite_entry": 206,
        "associated_satellite": null,
        "last_modified": "2021-04-21T03:46:09.941Z"
    }
},
{
    "model": "base.satellite",
    "pk": 215,
    "fields": {
        "satellite_identifier": 215,
        "satellite_entry": 220,
        "associated_satellite": null,
        "last_modified": "2021-04-21T03:46:09.943Z"
    }
},
{
    "model": "base.satellite",
    "pk": 216,
    "fields": {
        "satellite_identifier": 216,
        "satellite_entry": 207,
        "associated_satellite": null,
        "last_modified": "2021-04-21T03:46:09.944Z"
    }
},
{
    "model": "base.satellite",
    "pk": 217,
    "fields": {
        "satellite_identifier": 217,
        "satellite_entry": 208,
        "associated_satellite": null,
        "last_modified": "2021-04-21T03:46:09.945Z"
    }
},
{
    "model": "base.satellite",
    "pk": 218,
    "fields": {
        "satellite_identifier": 218,
        "satellite_entry": 209,
        "associated_satellite": null,
        "last_modified": "2021-04-21T03:46:09.946Z"
    }
},
{
    "model": "base.satellite",
    "pk": 219,
    "fields": {
        "satellite_identifier": 219,
        "satellite_entry": 203,
        "associated_satellite": null,
        "last_modified": "2021-04-21T03:46:09.948Z"
    }
},
{
    "model": "base.satellite",
    "pk": 220,
    "fields": {
        "satellite_identifier": 220,
        "satellite_entry": 210,
        "associated_satellite": null,
        "last_modified": "2021-04-21T03:46:09.949Z"
    }
},
{
    "model": "base.satellite",
    "pk": 221,
    "fields": {
        "satellite_identifier": 221,
        "satellite_entry": 211,
        "associated_satellite": null,
        "last_modified": "2021-04-21T03:46:09.950Z"
    }
},
{
    "model": "base.satellite",
    "pk": 222,
    "fields": {
        "satellite_identifier": 222,
        "satellite_entry": 212,
        "associated_satellite": null,
        "last_modified": "2021-04-21T03:46:09.951Z"
    }
},
{
    "model": "base.satellite",
    "pk": 223,
    "fields": {
        "satellite_identifier": 223,
        "satellite_entry": 214,
        "associated_satellite": null,
        "last_modified": "2021-04-21T03:46:09.952Z"
    }
},
{
    "model": "base.satellite",
    "pk": 224,
    "fields": {
        "satellite_identifier": 224,
        "satellite_entry": 213,
        "associated_satellite": null,
        "last_modified": "2021-04-21T03:46:09.954Z"
    }
},
{
    "model": "base.satellite",
    "pk": 225,
    "fields": {
        "satellite_identifier": 225,
        "satellite_entry": 239,
        "associated_satellite": null,
        "last_modified": "2021-04-21T03:46:09.955Z"
    }
},
{
    "model": "base.satellite",
    "pk": 226,
    "fields": {
        "satellite_identifier": 226,
        "satellite_entry": 215,
        "associated_satellite": null,
        "last_modified": "2021-04-21T03:46:09.956Z"
    }
},
{
    "model": "base.satellite",
    "pk": 227,
    "fields": {
        "satellite_identifier": 227,
        "satellite_entry": 216,
        "associated_satellite": null,
        "last_modified": "2021-04-21T03:46:09.957Z"
    }
},
{
    "model": "base.satellite",
    "pk": 228,
    "fields": {
        "satellite_identifier": 228,
        "satellite_entry": 226,
        "associated_satellite": null,
        "last_modified": "2021-04-21T03:46:09.958Z"
    }
},
{
    "model": "base.satellite",
    "pk": 229,
    "fields": {
        "satellite_identifier": 229,
        "satellite_entry": 217,
        "associated_satellite": null,
        "last_modified": "2021-04-21T03:46:09.960Z"
    }
},
{
    "model": "base.satellite",
    "pk": 230,
    "fields": {
        "satellite_identifier": 230,
        "satellite_entry": 218,
        "associated_satellite": null,
        "last_modified": "2021-04-21T03:46:09.961Z"
    }
},
{
    "model": "base.satellite",
    "pk": 231,
    "fields": {
        "satellite_identifier": 231,
        "satellite_entry": 228,
        "associated_satellite": null,
        "last_modified": "2021-04-21T03:46:09.962Z"
    }
},
{
    "model": "base.satellite",
    "pk": 232,
    "fields": {
        "satellite_identifier": 232,
        "satellite_entry": 223,
        "associated_satellite": null,
        "last_modified": "2021-04-21T03:46:09.963Z"
    }
},
{
    "model": "base.satellite",
    "pk": 233,
    "fields": {
        "satellite_identifier": 233,
        "satellite_entry": 224,
        "associated_satellite": null,
        "last_modified": "2021-04-21T03:46:09.964Z"
    }
},
{
    "model": "base.satellite",
    "pk": 234,
    "fields": {
        "satellite_identifier": 234,
        "satellite_entry": 225,
        "associated_satellite": null,
        "last_modified": "2021-04-21T03:46:09.965Z"
    }
},
{
    "model": "base.satellite",
    "pk": 235,
    "fields": {
        "satellite_identifier": 235,
        "satellite_entry": 236,
        "associated_satellite": null,
        "last_modified": "2021-04-21T03:46:09.967Z"
    }
},
{
    "model": "base.satellite",
    "pk": 236,
    "fields": {
        "satellite_identifier": 236,
        "satellite_entry": 247,
        "associated_satellite": null,
        "last_modified": "2021-04-21T03:46:09.968Z"
    }
},
{
    "model": "base.satellite",
    "pk": 237,
    "fields": {
        "satellite_identifier": 237,
        "satellite_entry": 235,
        "associated_satellite": null,
        "last_modified": "2021-04-21T03:46:09.969Z"
    }
},
{
    "model": "base.satellite",
    "pk": 238,
    "fields": {
        "satellite_identifier": 238,
        "satellite_entry": 233,
        "associated_satellite": null,
        "last_modified": "2021-04-21T03:46:09.970Z"
    }
},
{
    "model": "base.satellite",
    "pk": 239,
    "fields": {
        "satellite_identifier": 239,
        "satellite_entry": 229,
        "associated_satellite": null,
        "last_modified": "2021-04-21T03:46:09.971Z"
    }
},
{
    "model": "base.satellite",
    "pk": 240,
    "fields": {
        "satellite_identifier": 240,
        "satellite_entry": 231,
        "associated_satellite": null,
        "last_modified": "2021-04-21T03:46:09.972Z"
    }
},
{
    "model": "base.satellite",
    "pk": 241,
    "fields": {
        "satellite_identifier": 241,
        "satellite_entry": 243,
        "associated_satellite": null,
        "last_modified": "2021-04-21T03:46:09.974Z"
    }
},
{
    "model": "base.satellite",
    "pk": 242,
    "fields": {
        "satellite_identifier": 242,
        "satellite_entry": 245,
        "associated_satellite": null,
        "last_modified": "2021-04-21T03:46:09.975Z"
    }
},
{
    "model": "base.satellite",
    "pk": 243,
    "fields": {
        "satellite_identifier": 243,
        "satellite_entry": 248,
        "associated_satellite": null,
        "last_modified": "2021-04-21T03:46:09.976Z"
    }
},
{
    "model": "base.satellite",
    "pk": 244,
    "fields": {
        "satellite_identifier": 244,
        "satellite_entry": 240,
        "associated_satellite": null,
        "last_modified": "2021-04-21T03:46:09.977Z"
    }
},
{
    "model": "base.satellite",
    "pk": 245,
    "fields": {
        "satellite_identifier": 245,
        "satellite_entry": 241,
        "associated_satellite": null,
        "last_modified": "2021-04-21T03:46:09.978Z"
    }
},
{
    "model": "base.satellite",
    "pk": 246,
    "fields": {
        "satellite_identifier": 246,
        "satellite_entry": 246,
        "associated_satellite": null,
        "last_modified": "2021-04-21T03:46:09.979Z"
    }
},
{
    "model": "base.satellite",
    "pk": 247,
    "fields": {
        "satellite_identifier": 247,
        "satellite_entry": 256,
        "associated_satellite": null,
        "last_modified": "2021-04-21T03:46:09.980Z"
    }
},
{
    "model": "base.satellite",
    "pk": 248,
    "fields": {
        "satellite_identifier": 248,
        "satellite_entry": 257,
        "associated_satellite": null,
        "last_modified": "2021-04-21T03:46:09.982Z"
    }
},
{
    "model": "base.satellite",
    "pk": 249,
    "fields": {
        "satellite_identifier": 249,
        "satellite_entry": 258,
        "associated_satellite": null,
        "last_modified": "2021-04-21T03:46:09.983Z"
    }
},
{
    "model": "base.satellite",
    "pk": 250,
    "fields": {
        "satellite_identifier": 250,
        "satellite_entry": 261,
        "associated_satellite": null,
        "last_modified": "2021-04-21T03:46:09.984Z"
    }
},
{
    "model": "base.satellite",
    "pk": 251,
    "fields": {
        "satellite_identifier": 251,
        "satellite_entry": 260,
        "associated_satellite": null,
        "last_modified": "2021-04-21T03:46:09.985Z"
    }
},
{
    "model": "base.satellite",
    "pk": 252,
    "fields": {
        "satellite_identifier": 252,
        "satellite_entry": 268,
        "associated_satellite": null,
        "last_modified": "2021-04-21T03:46:09.986Z"
    }
},
{
    "model": "base.satellite",
    "pk": 253,
    "fields": {
        "satellite_identifier": 253,
        "satellite_entry": 267,
        "associated_satellite": null,
        "last_modified": "2021-04-21T03:46:09.987Z"
    }
},
{
    "model": "base.satellite",
    "pk": 254,
    "fields": {
        "satellite_identifier": 254,
        "satellite_entry": 266,
        "associated_satellite": null,
        "last_modified": "2021-04-21T03:46:09.988Z"
    }
},
{
    "model": "base.satellite",
    "pk": 255,
    "fields": {
        "satellite_identifier": 255,
        "satellite_entry": 264,
        "associated_satellite": null,
        "last_modified": "2021-04-21T03:46:09.990Z"
    }
},
{
    "model": "base.satellite",
    "pk": 256,
    "fields": {
        "satellite_identifier": 256,
        "satellite_entry": 265,
        "associated_satellite": null,
        "last_modified": "2021-04-21T03:46:09.991Z"
    }
},
{
    "model": "base.satellite",
    "pk": 257,
    "fields": {
        "satellite_identifier": 257,
        "satellite_entry": 272,
        "associated_satellite": null,
        "last_modified": "2021-04-21T03:46:09.992Z"
    }
},
{
    "model": "base.satellite",
    "pk": 258,
    "fields": {
        "satellite_identifier": 258,
        "satellite_entry": 273,
        "associated_satellite": null,
        "last_modified": "2021-04-21T03:46:09.993Z"
    }
},
{
    "model": "base.satellite",
    "pk": 259,
    "fields": {
        "satellite_identifier": 259,
        "satellite_entry": 274,
        "associated_satellite": null,
        "last_modified": "2021-04-21T03:46:09.994Z"
    }
},
{
    "model": "base.satellite",
    "pk": 260,
    "fields": {
        "satellite_identifier": 260,
        "satellite_entry": 275,
        "associated_satellite": null,
        "last_modified": "2021-04-21T03:46:09.995Z"
    }
},
{
    "model": "base.satellite",
    "pk": 261,
    "fields": {
        "satellite_identifier": 261,
        "satellite_entry": 232,
        "associated_satellite": null,
        "last_modified": "2021-04-21T03:46:09.997Z"
    }
},
{
    "model": "base.satellite",
    "pk": 262,
    "fields": {
        "satellite_identifier": 262,
        "satellite_entry": 234,
        "associated_satellite": null,
        "last_modified": "2021-04-21T03:46:09.998Z"
    }
},
{
    "model": "base.satellite",
    "pk": 263,
    "fields": {
        "satellite_identifier": 263,
        "satellite_entry": 262,
        "associated_satellite": null,
        "last_modified": "2021-04-21T03:46:09.999Z"
    }
},
{
    "model": "base.satellite",
    "pk": 264,
    "fields": {
        "satellite_identifier": 264,
        "satellite_entry": 263,
        "associated_satellite": null,
        "last_modified": "2021-04-21T03:46:10.000Z"
    }
},
{
    "model": "base.satellite",
    "pk": 265,
    "fields": {
        "satellite_identifier": 265,
        "satellite_entry": 270,
        "associated_satellite": null,
        "last_modified": "2021-04-21T03:46:10.002Z"
    }
},
{
    "model": "base.satellite",
    "pk": 266,
    "fields": {
        "satellite_identifier": 266,
        "satellite_entry": 269,
        "associated_satellite": null,
        "last_modified": "2021-04-21T03:46:10.003Z"
    }
},
{
    "model": "base.satellite",
    "pk": 267,
    "fields": {
        "satellite_identifier": 267,
        "satellite_entry": 259,
        "associated_satellite": null,
        "last_modified": "2021-04-21T03:46:10.004Z"
    }
}
]
